<?xml version="1.0" encoding="UTF-8"?>
<svg width="25px" height="13px" viewBox="0 0 25 13" version="1.1" xmlns="http://www.w3.org/2000/svg" xmlns:xlink="http://www.w3.org/1999/xlink">
    <!-- Generator: Sketch 47.1 (45422) - http://www.bohemiancoding.com/sketch -->
    <title>Arrow down blue</title>
    <desc>Created with Sketch.</desc>
    <defs></defs>
    <g id="Symbols" stroke="none" stroke-width="1" fill="none" fill-rule="evenodd">
        <g id="Section-Dropdown" transform="translate(-420.000000, -18.000000)" stroke="#003E7E">
            <g id="Arrow-down-blue" transform="translate(420.000000, 18.000000)">
                <polyline id="Path-2" transform="translate(12.500000, 0.722222) rotate(-45.000000) translate(-12.500000, -0.722222) " points="4.41176471 -7.22222222 4.41176471 8.66666667 20.5882353 8.66666667"></polyline>
            </g>
        </g>
    </g>
</svg>